…
``` r
# let's first take a look a the original data 
marathon <- read_csv("marathon.csv", col_types = cols(
  id = col_factor(),
  female = col_factor(),
  footwear = col_factor(),
  group = col_factor(),
  injury = col_factor()
))
marathon
```

    ## # A tibble: 2,303 x 11
    ##    id      age   bmi completed_marat… female footwear group injury distance
    ##    <fct> <dbl> <dbl>            <dbl> <fct>  <fct>    <fct> <fct>     <dbl>
    ##  1 1        25  21.6                0 1      2        2     1            NA
    ##  2 2        41  23.9                0 0      2        2     1            NA
    ##  3 3        25  21.6                0 0      2        2     1            NA
    ##  4 4        35  23.6                1 0      2        1     2         42195
    ##  5 5        34  22.7                0 0      2        1     1            NA
    ##  6 6        45  42.1                0 1      2        2     2            NA
    ##  7 7        33  22.5                1 0      2        2     2         42195
    ##  8 8        58  25.2                0 0      1        2     3            NA
    ##  9 9        29  24.5                0 0      1        3     2            NA
    ## 10 10       36  25.4                0 1      2        1     1            NA
    ## # … with 2,293 more rows, and 2 more variables: time <dbl>,
    ## #   training_miles <dbl>
…
``` r
# we will filter only those who completed the marathon and then calculate the speed
marathon_speed <- marathon %>% filter(completed_marathon == 1) %>%
  mutate(speed = distance / time,
         id = factor(id),) %>%
  select(-c(completed_marathon,
            distance,age,bmi,
            time,female,footwear,group))
marathon_speed
```

    ## # A tibble: 929 x 4
    ##    id    injury training_miles speed
    ##    <fct> <fct>           <dbl> <dbl>
    ##  1 4     2                  60  4.10
    ##  2 7     2                  50  3.43
    ##  3 12    1                  65  3.84
    ##  4 13    1                  88  3.95
    ##  5 14    1                  51  3.14
    ##  6 17    1                  40  2.82
    ##  7 20    1                  75  3.93
    ##  8 22    1                  45  3.88
    ##  9 25    1                  39  2.54
    ## 10 26    1                  45  2.73
    ## # … with 919 more rows
…
